^C:\USERS\PRZEMEK\DESKTOP\SEMESTR V\GRAFIKA\LABY\LAB_5\LAB_5_2_JAJKO\LAB_5_2_JAJKO\PCH.CPP
/c /I"C:\USERS\PRZEMEK\DESKTOP\SEMESTR V\GRAFIKA\LABY\LAB_5\LAB_5_2_JAJKO\PACKAGES\NUPENGL.CORE.0.1.0.1\BUILD\NATIVE\../..//BUILD/NATIVE/INCLUDE/" /ZI /JMC /nologo /W3 /WX- /diagnostics:classic /sdl /Od /Oy- /D WIN32 /D _DEBUG /D _CONSOLE /D _UNICODE /D UNICODE /Gm- /EHsc /RTC1 /MDd /GS /fp:precise /permissive- /Zc:wchar_t /Zc:forScope /Zc:inline /Yc"pch.h" /Fp"DEBUG\LAB_5_2_JAJKO.PCH" /Fo"DEBUG\\" /Fd"DEBUG\VC141.PDB" /Gd /TP /analyze- /FC C:\USERS\PRZEMEK\DESKTOP\SEMESTR V\GRAFIKA\LABY\LAB_5\LAB_5_2_JAJKO\LAB_5_2_JAJKO\PCH.CPP
^C:\USERS\PRZEMEK\DESKTOP\SEMESTR V\GRAFIKA\LABY\LAB_5\LAB_5_2_JAJKO\LAB_5_2_JAJKO\LAB_5_2_JAJKO.CPP
/c /I"C:\USERS\PRZEMEK\DESKTOP\SEMESTR V\GRAFIKA\LABY\LAB_5\LAB_5_2_JAJKO\PACKAGES\NUPENGL.CORE.0.1.0.1\BUILD\NATIVE\../..//BUILD/NATIVE/INCLUDE/" /ZI /JMC /nologo /W3 /WX- /diagnostics:classic /sdl /Od /Oy- /D WIN32 /D _DEBUG /D _CONSOLE /D _UNICODE /D UNICODE /Gm- /EHsc /RTC1 /MDd /GS /fp:precise /permissive- /Zc:wchar_t /Zc:forScope /Zc:inline /Yu"pch.h" /Fp"DEBUG\LAB_5_2_JAJKO.PCH" /Fo"DEBUG\\" /Fd"DEBUG\VC141.PDB" /Gd /TP /analyze- /FC C:\USERS\PRZEMEK\DESKTOP\SEMESTR V\GRAFIKA\LABY\LAB_5\LAB_5_2_JAJKO\LAB_5_2_JAJKO\LAB_5_2_JAJKO.CPP
